0:00:05
0:00:17
0:01:28
0:05:42
0:00:11
0:00:18
0:00:24
0:00:32
0:00:38
0:00:34
0:00:31
0:00:21
0:00:08
0:00:11
0:00:15
0:00:20
0:00:26
0:00:32
0:00:39
0:00:47
0:00:07
0:00:08
0:00:10
0:00:12
0:00:14
0:00:16
0:00:18
0:00:21
